{
  "useProjectPrefix": true,
  "technologies": [
    {
      "category": "External Libraries",
      "name": "junit",
      "languages": [
        "java"
      ],
      "extensions": [],
      "fingerprints": [
        "org.junit",
        "junit.framework",
        "org.hamcrest",
        "uk.co.datumedge.hamcrest"
      ],
      "wrapAsImports": true
    },
    {
      "category": "External Libraries",
      "name": "reactor",
      "languages": [
        "java"
      ],
      "extensions": [],
      "fingerprints": [
        "reactor"
      ],
      "wrapAsImports": true
    },
    {
      "category": "External Libraries",
      "name": "cassandraunit",
      "languages": [
        "java"
      ],
      "extensions": [],
      "fingerprints": [
        "org.cassandraunit"
      ],
      "wrapAsImports": true
    },
    {
      "category": "External Libraries",
      "name": "gherkin-formatter",
      "languages": [
        "java"
      ],
      "extensions": [],
      "fingerprints": [
        "gherkin.formatter"
      ],
      "wrapAsImports": true
    },
    {
      "category": "External Libraries",
      "name": "micrometer",
      "languages": [
        "java"
      ],
      "extensions": [],
      "fingerprints": [
        "io.micrometer"
      ],
      "wrapAsImports": true
    },
    {
      "category": "External Libraries",
      "name": "cucumber-api",
      "languages": [
        "java"
      ],
      "extensions": [],
      "fingerprints": [
        "cucumber.api"
      ],
      "wrapAsImports": true
    },
    {
      "category": "External Libraries",
      "name": "sun-xml",
      "languages": [
        "java"
      ],
      "extensions": [],
      "fingerprints": [
        "com.sun.xml"
      ],
      "wrapAsImports": true
    },
    {
      "category": "External Libraries",
      "name": "mozilla-javascript",
      "languages": [
        "java"
      ],
      "extensions": [],
      "fingerprints": [
        "org.mozilla.javascript"
      ],
      "wrapAsImports": true
    },
    {
      "category": "External Libraries",
      "name": "evosuite",
      "languages": [
        "java"
      ],
      "extensions": [],
      "fingerprints": [
        "org.evosuite"
      ],
      "wrapAsImports": true
    },
    {
      "category": "External Libraries",
      "name": "google-crypto",
      "languages": [
        "java"
      ],
      "extensions": [],
      "fingerprints": [
        "com.google.crypto"
      ],
      "wrapAsImports": true
    },
    {
      "category": "External Libraries",
      "name": "codahale-metrics",
      "languages": [
        "java"
      ],
      "extensions": [],
      "fingerprints": [
        "com.codahale.metrics"
      ],
      "wrapAsImports": true
    },
    {
      "category": "External Libraries",
      "name": "datastax",
      "languages": [
        "java"
      ],
      "extensions": [],
      "fingerprints": [
        "com.datastax"
      ],
      "wrapAsImports": true
    },
    {
      "category": "External Libraries",
      "name": "codebox",
      "languages": [
        "java"
      ],
      "extensions": [],
      "fingerprints": [
        "com.codebox"
      ],
      "wrapAsImports": true
    },
    {
      "category": "External Libraries",
      "name": "newrelic",
      "languages": [
        "java"
      ],
      "extensions": [],
      "fingerprints": [
        "com.newrelic"
      ],
      "wrapAsImports": true
    },
    {
      "category": "External Libraries",
      "name": "sfcommerce",
      "languages": [
        "java"
      ],
      "extensions": [],
      "fingerprints": [
        "com.sfcommerce"
      ],
      "wrapAsImports": true
    },
    {
      "category": "External Libraries",
      "name": "joptsimple",
      "languages": [
        "java"
      ],
      "extensions": [],
      "fingerprints": [
        "joptsimple"
      ],
      "wrapAsImports": true
    },
    {
      "category": "External Libraries",
      "name": "ryantenney-metrics",
      "languages": [
        "java"
      ],
      "extensions": [],
      "fingerprints": [
        "com.ryantenney.metrics"
      ],
      "wrapAsImports": true
    },
    {
      "category": "External Libraries",
      "name": "log4j",
      "languages": [
        "java"
      ],
      "extensions": [],
      "fingerprints": [
        "org.apache.log4j",
        "org.apache.logging"
      ],
      "wrapAsImports": true
    },
    {
      "category": "External Libraries",
      "name": "oneplatform",
      "languages": [
        "java"
      ],
      "extensions": [],
      "fingerprints": [
        "org.oneplatform.commons"
      ],
      "wrapAsImports": true
    },
    {
      "category": "External Libraries",
      "name": "ojai",
      "languages": [
        "java"
      ],
      "extensions": [],
      "fingerprints": [
        "org.ojai"
      ],
      "wrapAsImports": true
    },
    {
      "category": "External Libraries",
      "name": "oauth2",
      "languages": [
        "java"
      ],
      "extensions": [],
      "fingerprints": [
        "org.apache.oltu.oauth2"
      ],
      "wrapAsImports": true
    },
    {
      "category": "External Libraries",
      "name": "commons-text",
      "languages": [
        "java"
      ],
      "extensions": [],
      "fingerprints": [
        "org.apache.commons.text"
      ],
      "wrapAsImports": true
    },
    {
      "category": "External Libraries",
      "name": "commons-htrace",
      "languages": [
        "java"
      ],
      "extensions": [],
      "fingerprints": [
        "org.apache.htrace"
      ],
      "wrapAsImports": true
    },
    {
      "category": "External Libraries",
      "name": "feign",
      "languages": [
        "java"
      ],
      "extensions": [],
      "fingerprints": [
        "feign"
      ],
      "wrapAsImports": true
    },
    {
      "category": "External Libraries",
      "name": "tngtech",
      "languages": [
        "java"
      ],
      "extensions": [],
      "fingerprints": [
        "com.tngtech"
      ],
      "wrapAsImports": true
    },
    {
      "category": "External Libraries",
      "name": "activiti",
      "languages": [
        "java"
      ],
      "extensions": [],
      "fingerprints": [
        "org.activiti"
      ],
      "wrapAsImports": true
    },
    {
      "category": "External Libraries",
      "name": "okhttp3",
      "languages": [
        "java"
      ],
      "extensions": [],
      "fingerprints": [
        "okhttp3"
      ],
      "wrapAsImports": true
    },
    {
      "category": "External Libraries",
      "name": "logback",
      "languages": [
        "java"
      ],
      "extensions": [],
      "fingerprints": [
        "net.logstash.logback"
      ],
      "wrapAsImports": true
    },
    {
      "category": "External Libraries",
      "name": "swagger",
      "languages": [
        "java"
      ],
      "extensions": [],
      "fingerprints": [
        "io.swagger"
      ],
      "wrapAsImports": true
    },
    {
      "category": "External Libraries",
      "name": "retrofit2",
      "languages": [
        "java"
      ],
      "extensions": [],
      "fingerprints": [
        "retrofit2"
      ],
      "wrapAsImports": true
    },
    {
      "category": "External Libraries",
      "name": "springfox",
      "languages": [
        "java"
      ],
      "extensions": [],
      "fingerprints": [
        "springfox"
      ],
      "wrapAsImports": true
    },
    {
      "category": "External Libraries",
      "name": "seisint",
      "languages": [
        "java"
      ],
      "extensions": [],
      "fingerprints": [
        "com.seisint"
      ],
      "wrapAsImports": true
    },
    {
      "category": "External Libraries",
      "name": "plaid",
      "languages": [
        "java"
      ],
      "extensions": [],
      "fingerprints": [
        "com.plaid"
      ],
      "wrapAsImports": true
    },
    {
      "category": "External Libraries",
      "name": "netflix-hystrix",
      "languages": [
        "java"
      ],
      "extensions": [],
      "fingerprints": [
        "com.netflix.hystrix"
      ],
      "wrapAsImports": true
    },
    {
      "category": "External Libraries",
      "name": "netflix-ribbon",
      "languages": [
        "java"
      ],
      "extensions": [],
      "fingerprints": [
        "com.netflix.ribbon"
      ],
      "wrapAsImports": true
    },
    {
      "category": "External Libraries",
      "name": "mastercard-api",
      "languages": [
        "java"
      ],
      "extensions": [],
      "fingerprints": [
        "com.mastercard.api"
      ],
      "wrapAsImports": true
    },
    {
      "category": "External Libraries",
      "name": "mapr",
      "languages": [
        "java"
      ],
      "extensions": [],
      "fingerprints": [
        "com.mapr"
      ],
      "wrapAsImports": true
    },
    {
      "category": "External Libraries",
      "name": "jsonpath",
      "languages": [
        "java"
      ],
      "extensions": [],
      "fingerprints": [
        "com.jayway.jsonpath"
      ],
      "wrapAsImports": true
    },
    {
      "category": "External Libraries",
      "name": "restassured",
      "languages": [
        "java"
      ],
      "extensions": [],
      "fingerprints": [
        "com.jayway.restassured",
        "io.restassured"
      ],
      "wrapAsImports": true
    },
    {
      "category": "External Libraries",
      "name": "i18n",
      "languages": [
        "java"
      ],
      "extensions": [],
      "fingerprints": [
        "com.google.i18n",
        "com.neovisionaries.i18n"
      ],
      "wrapAsImports": true
    },
    {
      "category": "External Libraries",
      "name": "wnameless",
      "languages": [
        "java"
      ],
      "extensions": [],
      "fingerprints": [
        "com.github.wnameless"
      ],
      "wrapAsImports": true
    },
    {
      "category": "External Libraries",
      "name": "jknack",
      "languages": [
        "java"
      ],
      "extensions": [],
      "fingerprints": [
        "com.github.jknack"
      ],
      "wrapAsImports": true
    },
    {
      "category": "External Libraries",
      "name": "giact",
      "languages": [
        "java"
      ],
      "extensions": [],
      "fingerprints": [
        "com.giact"
      ],
      "wrapAsImports": true
    },
    {
      "category": "External Libraries",
      "name": "experian",
      "languages": [
        "java"
      ],
      "extensions": [],
      "fingerprints": [
        "com.experian"
      ],
      "wrapAsImports": true
    },
    {
      "category": "External Libraries",
      "name": "docusign",
      "languages": [
        "java"
      ],
      "extensions": [],
      "fingerprints": [
        "com.docusign"
      ],
      "wrapAsImports": true
    },
    {
      "category": "External Libraries",
      "name": "equifax",
      "languages": [
        "java"
      ],
      "extensions": [],
      "fingerprints": [
        "com.ca.equifax",
        "com.equifax"
      ],
      "wrapAsImports": true
    },
    {
      "category": "External Libraries",
      "name": "auth0",
      "languages": [
        "java"
      ],
      "extensions": [],
      "fingerprints": [
        "com.auth0"
      ],
      "wrapAsImports": true
    },
    {
      "category": "External Libraries",
      "name": "amazonaws",
      "languages": [
        "java"
      ],
      "extensions": [],
      "fingerprints": [
        "com.amazonaws"
      ],
      "wrapAsImports": true
    },
    {
      "category": "External Libraries",
      "name": "cryptonode",
      "languages": [
        "java"
      ],
      "extensions": [],
      "fingerprints": [
        "org.cryptonode"
      ],
      "wrapAsImports": true
    },
    {
      "category": "External Libraries",
      "name": "jcifs",
      "languages": [
        "java"
      ],
      "extensions": [],
      "fingerprints": [
        "jcifs"
      ],
      "wrapAsImports": true
    },
    {
      "category": "External Libraries",
      "name": "tibco-ontology",
      "languages": [
        "java"
      ],
      "extensions": [],
      "fingerprints": [
        "com.tibco"
      ],
      "wrapAsImports": true
    },
    {
      "category": "External Libraries",
      "name": "jsonwebtoken",
      "languages": [
        "java"
      ],
      "extensions": [],
      "fingerprints": [
        "io.jsonwebtoken"
      ],
      "wrapAsImports": true
    },
    {
      "category": "External Libraries",
      "name": "apache-bcel",
      "languages": [
        "java"
      ],
      "extensions": [],
      "fingerprints": [
        "com.sun.org.apache.bcel"
      ],
      "wrapAsImports": true
    },
    {
      "category": "External Libraries",
      "name": "sun-security",
      "languages": [
        "java"
      ],
      "extensions": [],
      "fingerprints": [
        "sun.security"
      ],
      "wrapAsImports": true
    },
    {
      "category": "External Libraries",
      "name": "infinispan",
      "languages": [
        "java"
      ],
      "extensions": [],
      "fingerprints": [
        "org.infinispan"
      ],
      "wrapAsImports": true
    },
    {
      "category": "External Libraries",
      "name": "tempuri",
      "languages": [
        "java"
      ],
      "extensions": [],
      "fingerprints": [
        "org.tempuri"
      ],
      "wrapAsImports": true
    },
    {
      "category": "External Libraries",
      "name": "tgio-rncryptor",
      "languages": [
        "java"
      ],
      "extensions": [],
      "fingerprints": [
        "tgio.rncryptor"
      ],
      "wrapAsImports": true
    },
    {
      "category": "External Libraries",
      "name": "bonecp",
      "languages": [
        "java"
      ],
      "extensions": [],
      "fingerprints": [
        "com.jolbox.bonecp"
      ],
      "wrapAsImports": true
    },
    {
      "category": "External Libraries",
      "name": "xhtmlrenderer",
      "languages": [
        "java"
      ],
      "extensions": [],
      "fingerprints": [
        "org.xhtmlrenderer"
      ],
      "wrapAsImports": true
    },
    {
      "category": "External Libraries",
      "name": "spongycastle",
      "languages": [
        "java"
      ],
      "extensions": [],
      "fingerprints": [
        "org.spongycastle"
      ],
      "wrapAsImports": true
    },
    {
      "category": "External Libraries",
      "name": "apache-openejb",
      "languages": [
        "java"
      ],
      "extensions": [],
      "fingerprints": [
        "org.apache.openejb"
      ],
      "wrapAsImports": true
    },
    {
      "category": "External Libraries",
      "name": "reflection",
      "languages": [
        "java"
      ],
      "extensions": [],
      "fingerprints": [
        "org.reflections"
      ],
      "wrapAsImports": true
    },
    {
      "category": "External Libraries",
      "name": "bonigarcia",
      "languages": [
        "java"
      ],
      "extensions": [],
      "fingerprints": [
        "io.github.bonigarcia"
      ],
      "wrapAsImports": true
    },
    {
      "category": "External Libraries",
      "name": "reportng",
      "languages": [
        "java"
      ],
      "extensions": [],
      "fingerprints": [
        "org.uncommons"
      ],
      "wrapAsImports": true
    },
    {
      "category": "External Libraries",
      "name": "hsqldb",
      "languages": [
        "java"
      ],
      "extensions": [],
      "fingerprints": [
        "org.hsqldb"
      ],
      "wrapAsImports": true
    },
    {
      "category": "External Libraries",
      "name": "apache-httpcomponents",
      "languages": [
        "java"
      ],
      "extensions": [],
      "fingerprints": [
        "org.apache.httpcomponents"
      ],
      "wrapAsImports": true
    },
    {
      "category": "External Libraries",
      "name": "simple-xml",
      "languages": [
        "java"
      ],
      "extensions": [],
      "fingerprints": [
        "org.simpleframework"
      ],
      "wrapAsImports": true
    },
    {
      "category": "External Libraries",
      "name": "Java Reflection",
      "languages": [
        "java"
      ],
      "extensions": [],
      "fingerprints": [
        "java.lang.reflect"
      ],
      "wrapAsImports": true
    },
    {
      "category": "External Libraries",
      "name": "Minidev-Json",
      "languages": [
        "java"
      ],
      "extensions": [],
      "fingerprints": [
        "net.minidev.json"
      ],
      "wrapAsImports": true
    },
    {
      "category": "External Libraries",
      "name": "Betamax",
      "languages": [
        "java"
      ],
      "extensions": [],
      "fingerprints": [
        "co.freside.betamax"
      ],
      "wrapAsImports": true
    },
    {
      "category": "External Libraries",
      "name": "jcraft",
      "languages": [
        "java"
      ],
      "extensions": [],
      "fingerprints": [
        "com.jcraft"
      ],
      "wrapAsImports": true
    },
    {
      "category": "External Libraries",
      "name": "Xac",
      "languages": [
        "java"
      ],
      "extensions": [],
      "fingerprints": [
        "com.xac"
      ],
      "wrapAsImports": true
    },
    {
      "category": "External Libraries",
      "name": "Barcodescanner",
      "languages": [
        "java"
      ],
      "extensions": [],
      "fingerprints": [
        "com.journeyapps.barcodescanner"
      ],
      "wrapAsImports": true
    },
    {
      "category": "External Libraries",
      "name": "Android",
      "languages": [
        "java"
      ],
      "extensions": [],
      "fingerprints": [
        "android"
      ],
      "wrapAsImports": true
    },
    {
      "category": "External Libraries",
      "name": "Elonen",
      "languages": [
        "java"
      ],
      "extensions": [],
      "fingerprints": [
        "fi.iki.elonen"
      ],
      "wrapAsImports": true
    },
    {
      "category": "External Libraries",
      "name": "rabbitmq",
      "languages": [
        "java"
      ],
      "extensions": [],
      "fingerprints": [
        "com.rabbitmq"
      ],
      "wrapAsImports": true
    },
    {
      "category": "External Libraries",
      "name": "microsoft-azure",
      "languages": [
        "java"
      ],
      "extensions": [],
      "fingerprints": [
        "com.microsoft.azure"
      ],
      "wrapAsImports": true
    },
    {
      "category": "External Libraries",
      "name": "microsoft-sqlserver",
      "languages": [
        "java"
      ],
      "extensions": [],
      "fingerprints": [
        "com.microsoft.sqlserver"
      ],
      "wrapAsImports": true
    },
    {
      "category": "External Libraries",
      "name": "microsoft-schemas",
      "languages": [
        "java"
      ],
      "extensions": [],
      "fingerprints": [
        "com.microsoft.schemas"
      ],
      "wrapAsImports": true
    },
    {
      "category": "External Libraries",
      "name": "Symbol-EMDK",
      "languages": [
        "java"
      ],
      "extensions": [],
      "fingerprints": [
        "com.symbol.emdk"
      ],
      "wrapAsImports": true
    },
    {
      "category": "External Libraries",
      "name": "ZXing",
      "languages": [
        "java"
      ],
      "extensions": [],
      "fingerprints": [
        "com.google.zxing"
      ],
      "wrapAsImports": true
    },
    {
      "category": "External Libraries",
      "name": "Zip4J",
      "languages": [
        "java"
      ],
      "extensions": [],
      "fingerprints": [
        "net.lingala.zip4j"
      ],
      "wrapAsImports": true
    },
    {
      "category": "External Libraries",
      "name": "Univocity-Parsers",
      "languages": [
        "java"
      ],
      "extensions": [],
      "fingerprints": [
        "com.univocity.parsers"
      ],
      "wrapAsImports": true
    },
    {
      "category": "External Libraries",
      "name": "Nimbusds",
      "languages": [
        "java"
      ],
      "extensions": [],
      "fingerprints": [
        "com.nimbusds"
      ],
      "wrapAsImports": true
    },
    {
      "category": "External Libraries",
      "name": "Mikephil-Charting",
      "languages": [
        "java"
      ],
      "extensions": [],
      "fingerprints": [
        "com.github.mikephil.charting"
      ],
      "wrapAsImports": true
    },
    {
      "category": "External Libraries",
      "name": "Couchbase",
      "languages": [
        "java"
      ],
      "extensions": [],
      "fingerprints": [
        "com.couchbase.lite"
      ],
      "wrapAsImports": true
    },
    {
      "category": "External Libraries",
      "name": "Canfordsoftware",
      "languages": [
        "java"
      ],
      "extensions": [],
      "fingerprints": [
        "com.canfordsoftware"
      ],
      "wrapAsImports": true
    },
    {
      "category": "External Libraries",
      "name": "XWalk",
      "languages": [
        "java"
      ],
      "extensions": [],
      "fingerprints": [
        "org.xwalk.core"
      ],
      "wrapAsImports": true
    },
    {
      "category": "External Libraries",
      "name": "XmlPull",
      "languages": [
        "java"
      ],
      "extensions": [],
      "fingerprints": [
        "org.xmlpull"
      ],
      "wrapAsImports": true
    },
    {
      "category": "External Libraries",
      "name": "Honeywell-Aidc",
      "languages": [
        "java"
      ],
      "extensions": [],
      "fingerprints": [
        "com.honeywell.aidc"
      ],
      "wrapAsImports": true
    },
    {
      "category": "External Libraries",
      "name": "Primer",
      "languages": [
        "java"
      ],
      "extensions": [],
      "fingerprints": [
        "primer"
      ],
      "wrapAsImports": true
    },
    {
      "category": "External Libraries",
      "name": "Sun-Utils",
      "languages": [
        "java"
      ],
      "extensions": [],
      "fingerprints": [
        "com.sun.rowset",
        "sun.print",
        "sun.misc",
        "sun.nio",
        "sun.reflect"
      ],
      "wrapAsImports": true
    },
    {
      "category": "External Libraries",
      "name": "Example",
      "languages": [
        "java"
      ],
      "extensions": [],
      "fingerprints": [
        "org.example"
      ],
      "wrapAsImports": true
    },
    {
      "category": "External Libraries",
      "name": "Primer",
      "languages": [
        "java"
      ],
      "extensions": [],
      "fingerprints": [
        "primer"
      ],
      "wrapAsImports": true
    },
    {
      "category": "External Libraries",
      "name": "Swing",
      "languages": [
        "java"
      ],
      "extensions": [],
      "fingerprints": [
        "javax.swing",
        "com.sun.java.swing"
      ],
      "wrapAsImports": true
    },
    {
      "category": "External Libraries",
      "name": "Databene",
      "languages": [
        "java"
      ],
      "extensions": [],
      "fingerprints": [
        "org.databene"
      ],
      "wrapAsImports": true
    },
    {
      "category": "External Libraries",
      "name": "apache-tools",
      "languages": [
        "java"
      ],
      "extensions": [],
      "fingerprints": [
        "org.apache.tools"
      ],
      "wrapAsImports": true
    },
    {
      "category": "External Libraries",
      "name": "apache-xml",
      "languages": [
        "java"
      ],
      "extensions": [],
      "fingerprints": [
        "org.apache.xml",
        "org.apache.xmlbeans"
      ],
      "wrapAsImports": true
    },
    {
      "category": "External Libraries",
      "name": "asciidoctor",
      "languages": [
        "java"
      ],
      "extensions": [],
      "fingerprints": [
        "org.asciidoctor"
      ],
      "wrapAsImports": true
    },
    {
      "category": "External Libraries",
      "name": "jcodings",
      "languages": [
        "java"
      ],
      "extensions": [],
      "fingerprints": [
        "org.jcodings"
      ],
      "wrapAsImports": true
    },
    {
      "category": "External Libraries",
      "name": "assertj",
      "languages": [
        "java"
      ],
      "extensions": [],
      "fingerprints": [
        "org.assertj"
      ],
      "wrapAsImports": true
    },
    {
      "category": "External Libraries",
      "name": "thymeleaf",
      "languages": [
        "java"
      ],
      "extensions": [],
      "fingerprints": [
        "org.thymeleaf"
      ],
      "wrapAsImports": true
    },
    {
      "category": "External Libraries",
      "name": "apache-openjpa",
      "languages": [
        "java"
      ],
      "extensions": [],
      "fingerprints": [
        "org.apache.openjpa"
      ],
      "wrapAsImports": true
    },
    {
      "category": "External Libraries",
      "name": "batik-css-1.7",
      "languages": [
        "java"
      ],
      "extensions": [],
      "fingerprints": [
        "org.apache.batik.css"
      ],
      "wrapAsImports": true
    },
    {
      "category": "External Libraries",
      "name": "jndi",
      "languages": [
        "java"
      ],
      "extensions": [],
      "fingerprints": [
        "com.sun.jndi"
      ],
      "wrapAsImports": true
    },
    {
      "category": "External Libraries",
      "name": "antlr",
      "languages": [
        "java"
      ],
      "extensions": [],
      "fingerprints": [
        "org.antlr"
      ],
      "wrapAsImports": true
    },
    {
      "category": "External Libraries",
      "name": "CORBA",
      "languages": [
        "java"
      ],
      "extensions": [],
      "fingerprints": [
        "org.omg.CORBA"
      ],
      "wrapAsImports": true
    },
    {
      "category": "External Libraries",
      "name": "aopalliance",
      "languages": [
        "java"
      ],
      "extensions": [],
      "fingerprints": [
        "org.aopalliance"
      ],
      "wrapAsImports": true
    },
    {
      "category": "External Libraries",
      "name": "asm",
      "languages": [
        "java"
      ],
      "extensions": [],
      "fingerprints": [
        "org.objectweb.asm"
      ],
      "wrapAsImports": true
    },
    {
      "category": "External Libraries",
      "name": "apache-wicket",
      "languages": [
        "java"
      ],
      "extensions": [],
      "fingerprints": [
        "org.apache.wicket"
      ],
      "wrapAsImports": true
    },
    {
      "category": "External Libraries",
      "name": "aspectj",
      "languages": [
        "java"
      ],
      "extensions": [],
      "fingerprints": [
        "org.aspectj"
      ],
      "wrapAsImports": true
    },
    {
      "category": "External Libraries",
      "name": "apache-axis",
      "languages": [
        "java"
      ],
      "extensions": [],
      "fingerprints": [
        "org.apache.axis"
      ],
      "wrapAsImports": true
    },
    {
      "category": "External Libraries",
      "name": "apache-axis2",
      "languages": [
        "java"
      ],
      "extensions": [],
      "fingerprints": [
        "org.apache.axis2"
      ],
      "wrapAsImports": true
    },
    {
      "category": "External Libraries",
      "name": "apache-axiom",
      "languages": [
        "java"
      ],
      "extensions": [],
      "fingerprints": [
        "org.apache.axiom"
      ],
      "wrapAsImports": true
    },
    {
      "category": "External Libraries",
      "name": "bouncycastle",
      "languages": [
        "java"
      ],
      "extensions": [],
      "fingerprints": [
        "org.bouncycastle"
      ],
      "wrapAsImports": true
    },
    {
      "category": "External Libraries",
      "name": "c3p0",
      "languages": [
        "java"
      ],
      "extensions": [],
      "fingerprints": [
        "com.mchange"
      ],
      "wrapAsImports": true
    },
    {
      "category": "External Libraries",
      "name": "testng",
      "languages": [
        "java"
      ],
      "extensions": [],
      "fingerprints": [
        "bsh",
        "org.testng"
      ],
      "wrapAsImports": true
    },
    {
      "category": "External Libraries",
      "name": "cglib",
      "languages": [
        "java"
      ],
      "extensions": [],
      "fingerprints": [
        "net.sf.cglib"
      ],
      "wrapAsImports": true
    },
    {
      "category": "External Libraries",
      "name": "commons-beanutils",
      "languages": [
        "java"
      ],
      "extensions": [],
      "fingerprints": [
        "org.apache.commons.beanutils"
      ],
      "wrapAsImports": true
    },
    {
      "category": "External Libraries",
      "name": "commons-codec",
      "languages": [
        "java"
      ],
      "extensions": [],
      "fingerprints": [
        "org.apache.commons.codec"
      ],
      "wrapAsImports": true
    },
    {
      "category": "External Libraries",
      "name": "commons-collections",
      "languages": [
        "java"
      ],
      "extensions": [],
      "fingerprints": [
        "org.apache.commons.collections",
        "org.apache.commons.collections4"
      ],
      "wrapAsImports": true
    },
    {
      "category": "External Libraries",
      "name": "commons-configuration",
      "languages": [
        "java"
      ],
      "extensions": [],
      "fingerprints": [
        "org.apache.commons.configuration"
      ],
      "wrapAsImports": true
    },
    {
      "category": "External Libraries",
      "name": "commons-csv",
      "languages": [
        "java"
      ],
      "extensions": [],
      "fingerprints": [
        "org.apache.commons.csv"
      ],
      "wrapAsImports": true
    },
    {
      "category": "External Libraries",
      "name": "commons-daemon",
      "languages": [
        "java"
      ],
      "extensions": [],
      "fingerprints": [
        "org.apache.commons.daemon"
      ],
      "wrapAsImports": true
    },
    {
      "category": "External Libraries",
      "name": "commons-dbcp",
      "languages": [
        "java"
      ],
      "extensions": [],
      "fingerprints": [
        "org.apache.commons.dbcp",
        "org.apache.commons.jocl"
      ],
      "wrapAsImports": true
    },
    {
      "category": "External Libraries",
      "name": "commons-digester",
      "languages": [
        "java"
      ],
      "extensions": [],
      "fingerprints": [
        "org.apache.commons.digester"
      ],
      "wrapAsImports": true
    },
    {
      "category": "External Libraries",
      "name": "commons-discovery",
      "languages": [
        "java"
      ],
      "extensions": [],
      "fingerprints": [
        "org.apache.commons.discovery"
      ],
      "wrapAsImports": true
    },
    {
      "category": "External Libraries",
      "name": "commons-fileupload",
      "languages": [
        "java"
      ],
      "extensions": [],
      "fingerprints": [
        "org.apache.commons.fileupload"
      ],
      "wrapAsImports": true
    },
    {
      "category": "External Libraries",
      "name": "commons-httpclient",
      "languages": [
        "java"
      ],
      "extensions": [],
      "fingerprints": [
        "org.apache.commons.httpclient"
      ],
      "wrapAsImports": true
    },
    {
      "category": "External Libraries",
      "name": "commons-io",
      "languages": [
        "java"
      ],
      "extensions": [],
      "fingerprints": [
        "org.apache.commons.io"
      ],
      "wrapAsImports": true
    },
    {
      "category": "External Libraries",
      "name": "commons-lang",
      "languages": [
        "java"
      ],
      "extensions": [],
      "fingerprints": [
        "org.apache.commons.lang"
      ],
      "wrapAsImports": true
    },
    {
      "category": "External Libraries",
      "name": "commons-lang4",
      "languages": [
        "java"
      ],
      "extensions": [],
      "fingerprints": [
        "org.apache.commons.lang4"
      ],
      "wrapAsImports": true
    },
    {
      "category": "External Libraries",
      "name": "commons-lang3",
      "languages": [
        "java"
      ],
      "extensions": [],
      "fingerprints": [
        "org.apache.commons.lang3"
      ],
      "wrapAsImports": true
    },
    {
      "category": "External Libraries",
      "name": "commons-net",
      "languages": [
        "java"
      ],
      "extensions": [],
      "fingerprints": [
        "org.apache.commons.net"
      ],
      "wrapAsImports": true
    },
    {
      "category": "External Libraries",
      "name": "commons-logging",
      "languages": [
        "java"
      ],
      "extensions": [],
      "fingerprints": [
        "org.apache.commons.logging"
      ],
      "wrapAsImports": true
    },
    {
      "category": "External Libraries",
      "name": "commons-pool",
      "languages": [
        "java"
      ],
      "extensions": [],
      "fingerprints": [
        "org.apache.commons.pool",
        "org.apache.commons.pool2"
      ],
      "wrapAsImports": true
    },
    {
      "category": "External Libraries",
      "name": "commons-validator",
      "languages": [
        "java"
      ],
      "extensions": [],
      "fingerprints": [
        "org.apache.commons.validator"
      ],
      "wrapAsImports": true
    },
    {
      "category": "External Libraries",
      "name": "apache-cxf",
      "languages": [
        "java"
      ],
      "extensions": [],
      "fingerprints": [
        "org.apache.cxf"
      ],
      "wrapAsImports": true
    },
    {
      "category": "External Libraries",
      "name": "dozer",
      "languages": [
        "java"
      ],
      "extensions": [],
      "fingerprints": [
        "org.dozer",
        "net.sf.dozer"
      ],
      "wrapAsImports": true
    },
    {
      "category": "External Libraries",
      "name": "ehcache",
      "languages": [
        "java"
      ],
      "extensions": [],
      "fingerprints": [
        "net.sf.ehcache"
      ],
      "wrapAsImports": true
    },
    {
      "category": "External Libraries",
      "name": "google-common",
      "languages": [
        "java"
      ],
      "extensions": [],
      "fingerprints": [
        "com.google.common"
      ],
      "wrapAsImports": true
    },
    {
      "category": "External Libraries",
      "name": "wiremock",
      "languages": [
        "java"
      ],
      "extensions": [],
      "fingerprints": [
        "com.github.tomakehurst.wiremock"
      ],
      "wrapAsImports": true
    },
    {
      "category": "External Libraries",
      "name": "findbugs",
      "languages": [
        "java"
      ],
      "extensions": [],
      "fingerprints": [
        "com.google.code.findbugs"
      ],
      "wrapAsImports": true
    },
    {
      "category": "External Libraries",
      "name": "json",
      "languages": [
        "java"
      ],
      "extensions": [],
      "fingerprints": [
        "flexjson",
        "net.sf.flexjson",
        "net.sf.json",
        "net.sf.oval",
        "org.json"
      ],
      "wrapAsImports": true
    },
    {
      "category": "External Libraries",
      "name": "modelmapper",
      "languages": [
        "java"
      ],
      "extensions": [],
      "fingerprints": [
        "org.modelmapper"
      ],
      "wrapAsImports": true
    },
    {
      "category": "External Libraries",
      "name": "jsoup",
      "languages": [
        "java"
      ],
      "extensions": [],
      "fingerprints": [
        "org.jsoup"
      ],
      "wrapAsImports": true
    },
    {
      "category": "External Libraries",
      "name": "geronimo",
      "languages": [
        "java"
      ],
      "extensions": [],
      "fingerprints": [
        "org.apache.geronimo"
      ],
      "wrapAsImports": true
    },
    {
      "category": "External Libraries",
      "name": "opensymphony",
      "languages": [
        "java"
      ],
      "extensions": [],
      "fingerprints": [
        "com.opensymphony"
      ],
      "wrapAsImports": true
    },
    {
      "category": "External Libraries",
      "name": "ognl",
      "languages": [
        "java"
      ],
      "extensions": [],
      "fingerprints": [
        "ognl"
      ],
      "wrapAsImports": true
    },
    {
      "category": "External Libraries",
      "name": "google-collections",
      "languages": [
        "java"
      ],
      "extensions": [],
      "fingerprints": [
        "com.google.collections"
      ],
      "wrapAsImports": true
    },
    {
      "category": "External Libraries",
      "name": "google-gxp",
      "languages": [
        "java"
      ],
      "extensions": [],
      "fingerprints": [
        "com.google.gxp"
      ],
      "wrapAsImports": true
    },
    {
      "category": "External Libraries",
      "name": "gson",
      "languages": [
        "java"
      ],
      "extensions": [],
      "fingerprints": [
        "com.google.gson"
      ],
      "wrapAsImports": true
    },
    {
      "category": "External Libraries",
      "name": "guava",
      "languages": [
        "java"
      ],
      "extensions": [],
      "fingerprints": [
        "com.google.common"
      ],
      "wrapAsImports": true
    },
    {
      "category": "External Libraries",
      "name": "h2database",
      "languages": [
        "java"
      ],
      "extensions": [],
      "fingerprints": [
        "org.h2",
        "com.h2database"
      ],
      "wrapAsImports": true
    },
    {
      "category": "External Libraries",
      "name": "virtuald",
      "languages": [
        "java"
      ],
      "extensions": [],
      "fingerprints": [
        "com.github.virtuald"
      ],
      "wrapAsImports": true
    },
    {
      "category": "External Libraries",
      "name": "directwebremoting",
      "languages": [
        "java"
      ],
      "extensions": [],
      "fingerprints": [
        "org.directwebremoting"
      ],
      "wrapAsImports": true
    },
    {
      "category": "External Libraries",
      "name": "ha-api",
      "languages": [
        "java"
      ],
      "extensions": [],
      "fingerprints": [
        "org.glassfish.ha"
      ],
      "wrapAsImports": true
    },
    {
      "category": "External Libraries",
      "name": "glasnost-orika",
      "languages": [
        "java"
      ],
      "extensions": [],
      "fingerprints": [
        "ma.glasnost.orika"
      ],
      "wrapAsImports": true
    },
    {
      "category": "External Libraries",
      "name": "hibernate",
      "languages": [
        "java"
      ],
      "extensions": [],
      "fingerprints": [
        "org.hibernate"
      ],
      "wrapAsImports": true
    },
    {
      "category": "External Libraries",
      "name": "ibatis",
      "languages": [
        "java"
      ],
      "extensions": [],
      "fingerprints": [
        "com.ibatis"
      ],
      "wrapAsImports": true
    },
    {
      "category": "External Libraries",
      "name": "apache-ibatis",
      "languages": [
        "java"
      ],
      "extensions": [],
      "fingerprints": [
        "org.apache.ibatis"
      ],
      "wrapAsImports": true
    },
    {
      "category": "External Libraries",
      "name": "ibm-MDM",
      "languages": [
        "java"
      ],
      "extensions": [],
      "fingerprints": [
        "madison.mpi",
        "madison.header",
        "madison.util"
      ],
      "wrapAsImports": true
    },
    {
      "category": "External Libraries",
      "name": "ibm-ejs",
      "languages": [
        "java"
      ],
      "extensions": [],
      "fingerprints": [
        "com.ibm.ejs"
      ],
      "wrapAsImports": true
    },
    {
      "category": "External Libraries",
      "name": "ibm-ejs",
      "languages": [
        "java"
      ],
      "extensions": [],
      "fingerprints": [
        "com.ibm.icu"
      ],
      "wrapAsImports": true
    },
    {
      "category": "External Libraries",
      "name": "ibm-etools",
      "languages": [
        "java"
      ],
      "extensions": [],
      "fingerprints": [
        "ibm.etools"
      ],
      "wrapAsImports": true
    },
    {
      "category": "External Libraries",
      "name": "ibm-mqjms",
      "languages": [
        "java"
      ],
      "extensions": [],
      "fingerprints": [
        "com.ibm.mq",
        "com.ibm.msg",
        "com.ibm.mqjms",
        "com.ibm.jms"
      ],
      "wrapAsImports": true
    },
    {
      "category": "External Libraries",
      "name": "ibm-websphere",
      "languages": [
        "java"
      ],
      "extensions": [],
      "fingerprints": [
        "com.ibm.websphere",
        "com.ibm.ws",
        "com.ibm.wsdl",
        "com.ibm.wsspi"
      ],
      "wrapAsImports": true
    },
    {
      "category": "External Libraries",
      "name": "emory-mathcs",
      "languages": [
        "java"
      ],
      "extensions": [],
      "fingerprints": [
        "edu.emory.mathcs"
      ],
      "wrapAsImports": true
    },
    {
      "category": "External Libraries",
      "name": "ibm-wsspi",
      "languages": [
        "java"
      ],
      "extensions": [],
      "fingerprints": [
        "com.ibm.wsspi"
      ],
      "wrapAsImports": true
    },
    {
      "category": "External Libraries",
      "name": "ibm-xtq",
      "languages": [
        "java"
      ],
      "extensions": [],
      "fingerprints": [
        "com.ibm.xtq"
      ],
      "wrapAsImports": true
    },
    {
      "category": "External Libraries",
      "name": "ibm-xylem",
      "languages": [
        "java"
      ],
      "extensions": [],
      "fingerprints": [
        "com.ibm.xylem"
      ],
      "wrapAsImports": true
    },
    {
      "category": "External Libraries",
      "name": "itext",
      "languages": [
        "java"
      ],
      "extensions": [],
      "fingerprints": [
        "com.lowagie"
      ],
      "wrapAsImports": true
    },
    {
      "category": "External Libraries",
      "name": "itextpdf",
      "languages": [
        "java"
      ],
      "extensions": [],
      "fingerprints": [
        "com.itextpdf"
      ],
      "wrapAsImports": true
    },
    {
      "category": "External Libraries",
      "name": "jacoco",
      "languages": [
        "java"
      ],
      "extensions": [],
      "fingerprints": [
        "org.jacoco"
      ],
      "wrapAsImports": true
    },
    {
      "category": "External Libraries",
      "name": "jackson",
      "languages": [
        "java"
      ],
      "extensions": [],
      "fingerprints": [
        "org.codehaus.jackson"
      ],
      "wrapAsImports": true
    },
    {
      "category": "External Libraries",
      "name": "ksoap2",
      "languages": [
        "java"
      ],
      "extensions": [],
      "fingerprints": [
        "org.ksoap2"
      ],
      "wrapAsImports": true
    },
    {
      "category": "External Libraries",
      "name": "kxml2",
      "languages": [
        "java"
      ],
      "extensions": [],
      "fingerprints": [
        "org.kxml2"
      ],
      "wrapAsImports": true
    },
    {
      "category": "External Libraries",
      "name": "plexus",
      "languages": [
        "java"
      ],
      "extensions": [],
      "fingerprints": [
        "org.codehaous.plexus"
      ],
      "wrapAsImports": true
    },
    {
      "category": "External Libraries",
      "name": "jmock",
      "languages": [
        "java"
      ],
      "extensions": [],
      "fingerprints": [
        "org.jmock"
      ],
      "wrapAsImports": true
    },
    {
      "category": "External Libraries",
      "name": "easymock",
      "languages": [
        "java"
      ],
      "extensions": [],
      "fingerprints": [
        "org.easymock",
        "org.unitils"
      ],
      "wrapAsImports": true
    },
    {
      "category": "External Libraries",
      "name": "jakarta-oro",
      "languages": [
        "java"
      ],
      "extensions": [],
      "fingerprints": [
        "org.apache.oro"
      ],
      "wrapAsImports": true
    },
    {
      "category": "External Libraries",
      "name": "jakarta-regexp",
      "languages": [
        "java"
      ],
      "extensions": [],
      "fingerprints": [
        "org.apache.regexp"
      ],
      "wrapAsImports": true
    },
    {
      "category": "External Libraries",
      "name": "jasperreports",
      "languages": [
        "java"
      ],
      "extensions": [],
      "fingerprints": [
        "net.sf.jasperreports"
      ],
      "wrapAsImports": true
    },
    {
      "category": "External Libraries",
      "name": "jasypt",
      "languages": [
        "java"
      ],
      "extensions": [],
      "fingerprints": [
        "org.jasypt"
      ],
      "wrapAsImports": true
    },
    {
      "category": "External Libraries",
      "name": "Javatuples",
      "languages": [
        "java"
      ],
      "extensions": [],
      "fingerprints": [
        "org.javatuples"
      ],
      "wrapAsImports": true
    },
    {
      "category": "External Libraries",
      "name": "jwebunit",
      "languages": [
        "java"
      ],
      "extensions": [],
      "fingerprints": [
        "net.sourceforge.jwebunit"
      ],
      "wrapAsImports": true
    },
    {
      "category": "External Libraries",
      "name": "java.sql",
      "languages": [
        "java"
      ],
      "extensions": [],
      "fingerprints": [
        "java.sql",
        "javax.sql"
      ],
      "wrapAsImports": true
    },
    {
      "category": "External Libraries",
      "name": "javassist",
      "languages": [
        "java"
      ],
      "extensions": [],
      "fingerprints": [
        "javassist"
      ],
      "wrapAsImports": true
    },
    {
      "category": "External Libraries",
      "name": "javax-mail",
      "languages": [
        "java"
      ],
      "extensions": [],
      "fingerprints": [
        "javax.mail"
      ],
      "wrapAsImports": true
    },
    {
      "category": "External Libraries",
      "name": "javax-portelet",
      "languages": [
        "java"
      ],
      "extensions": [],
      "fingerprints": [
        "javax.portlet"
      ],
      "wrapAsImports": true
    },
    {
      "category": "External Libraries",
      "name": "javax-transaction",
      "languages": [
        "java"
      ],
      "extensions": [],
      "fingerprints": [
        "javax.transaction"
      ],
      "wrapAsImports": true
    },
    {
      "category": "External Libraries",
      "name": "javax-activation",
      "languages": [
        "java"
      ],
      "extensions": [],
      "fingerprints": [
        "javax.activation"
      ],
      "wrapAsImports": true
    },
    {
      "category": "External Libraries",
      "name": "javax-annotation",
      "languages": [
        "java"
      ],
      "extensions": [],
      "fingerprints": [
        "javax.annotation"
      ],
      "wrapAsImports": true
    },
    {
      "category": "External Libraries",
      "name": "javax-jms",
      "languages": [
        "java"
      ],
      "extensions": [],
      "fingerprints": [
        "javax.jms"
      ],
      "wrapAsImports": true
    },
    {
      "category": "External Libraries",
      "name": "javax-jndi",
      "languages": [
        "java"
      ],
      "extensions": [],
      "fingerprints": [
        "javax.naming"
      ],
      "wrapAsImports": true
    },
    {
      "category": "External Libraries",
      "name": "javax-jws",
      "languages": [
        "java"
      ],
      "extensions": [],
      "fingerprints": [
        "javax.jws"
      ],
      "wrapAsImports": true
    },
    {
      "category": "External Libraries",
      "name": "javax-mail",
      "languages": [
        "java"
      ],
      "extensions": [],
      "fingerprints": [
        "javax.mail"
      ],
      "wrapAsImports": true
    },
    {
      "category": "External Libraries",
      "name": "javax-ejb",
      "languages": [
        "java"
      ],
      "extensions": [],
      "fingerprints": [
        "javax.ejb"
      ],
      "wrapAsImports": true
    },
    {
      "category": "External Libraries",
      "name": "javax-persistence",
      "languages": [
        "java"
      ],
      "extensions": [],
      "fingerprints": [
        "javax.persistence"
      ],
      "wrapAsImports": true
    },
    {
      "category": "External Libraries",
      "name": "javax-servlet",
      "languages": [
        "java"
      ],
      "extensions": [],
      "fingerprints": [
        "javax.servlet"
      ],
      "wrapAsImports": true
    },
    {
      "category": "External Libraries",
      "name": "javax-validation",
      "languages": [
        "java"
      ],
      "extensions": [],
      "fingerprints": [
        "javax.validation"
      ],
      "wrapAsImports": true
    },
    {
      "category": "External Libraries",
      "name": "javax-xml",
      "languages": [
        "java"
      ],
      "extensions": [],
      "fingerprints": [
        "javax.xml"
      ],
      "wrapAsImports": true
    },
    {
      "category": "External Libraries",
      "name": "xpath",
      "languages": [
        "java"
      ],
      "extensions": [],
      "fingerprints": [
        "com.sun.org.apache.xpath)([a-zA-Z_0-9]*.)+(internal",
        "org.apache.xpath)([a-zA-Z_0-9]*.)+(internal"
      ],
      "wrapAsImports": true
    },
    {
      "category": "External Libraries",
      "name": "jaxws-spring",
      "languages": [
        "java"
      ],
      "extensions": [],
      "fingerprints": [
        "org.jvnet.jax_ws_commons",
        "com.sun.xml.ws.transport"
      ],
      "wrapAsImports": true
    },
    {
      "category": "External Libraries",
      "name": "jaxws-tools",
      "languages": [
        "java"
      ],
      "extensions": [],
      "fingerprints": [
        "com.sun.tools"
      ],
      "wrapAsImports": true
    },
    {
      "category": "External Libraries",
      "name": "jboss",
      "languages": [
        "java"
      ],
      "extensions": [],
      "fingerprints": [
        "org.jboss"
      ],
      "wrapAsImports": true
    },
    {
      "category": "External Libraries",
      "name": "jdbi",
      "languages": [
        "java"
      ],
      "extensions": [],
      "fingerprints": [
        "org.skife.jdbi"
      ],
      "wrapAsImports": true
    },
    {
      "category": "External Libraries",
      "name": "Monitorjbl-XLSX",
      "languages": [
        "java"
      ],
      "extensions": [],
      "fingerprints": [
        "com.monitorjbl.xlsx"
      ],
      "wrapAsImports": true
    },
    {
      "category": "External Libraries",
      "name": "apache-felix",
      "languages": [
        "java"
      ],
      "extensions": [],
      "fingerprints": [
        "org.apache.felix"
      ],
      "wrapAsImports": true
    },
    {
      "category": "External Libraries",
      "name": "jettison",
      "languages": [
        "java"
      ],
      "extensions": [],
      "fingerprints": [
        "org.codehaus.jettison"
      ],
      "wrapAsImports": true
    },
    {
      "category": "External Libraries",
      "name": "jetty",
      "languages": [
        "java"
      ],
      "extensions": [],
      "fingerprints": [
        "org.mortaby",
        "org.eclipse.jetty"
      ],
      "wrapAsImports": true
    },
    {
      "category": "External Libraries",
      "name": "jfreechart",
      "languages": [
        "java"
      ],
      "extensions": [],
      "fingerprints": [
        "org.jfree"
      ],
      "wrapAsImports": true
    },
    {
      "category": "External Libraries",
      "name": "freemaker",
      "languages": [
        "java"
      ],
      "extensions": [],
      "fingerprints": [
        "freemaker"
      ],
      "wrapAsImports": true
    },
    {
      "category": "External Libraries",
      "name": "joda-time",
      "languages": [
        "java"
      ],
      "extensions": [],
      "fingerprints": [
        "org.joda.time"
      ],
      "wrapAsImports": true
    },
    {
      "category": "External Libraries",
      "name": "mysema-query",
      "languages": [
        "java"
      ],
      "extensions": [],
      "fingerprints": [
        "com.mysema.query"
      ],
      "wrapAsImports": true
    },
    {
      "category": "External Libraries",
      "name": "myfaces",
      "languages": [
        "java"
      ],
      "extensions": [],
      "fingerprints": [
        "org.apache.myfaces"
      ],
      "wrapAsImports": true
    },
    {
      "category": "External Libraries",
      "name": "sun-faces",
      "languages": [
        "java"
      ],
      "extensions": [],
      "fingerprints": [
        "com.sun.faces"
      ],
      "wrapAsImports": true
    },
    {
      "category": "External Libraries",
      "name": "myfaces-jsf-api",
      "languages": [
        "java"
      ],
      "extensions": [],
      "fingerprints": [
        "javax.faces"
      ],
      "wrapAsImports": true
    },
    {
      "category": "External Libraries",
      "name": "fest-assert",
      "languages": [
        "java"
      ],
      "extensions": [],
      "fingerprints": [
        "org.fest.assertions"
      ],
      "wrapAsImports": true
    },
    {
      "category": "External Libraries",
      "name": "mockito",
      "languages": [
        "java"
      ],
      "extensions": [],
      "fingerprints": [
        "org.mockito"
      ],
      "wrapAsImports": true
    },
    {
      "category": "External Libraries",
      "name": "mockobjects",
      "languages": [
        "java"
      ],
      "extensions": [],
      "fingerprints": [
        "com.mockobjects"
      ],
      "wrapAsImports": true
    },
    {
      "category": "External Libraries",
      "name": "mvel2",
      "languages": [
        "java"
      ],
      "extensions": [],
      "fingerprints": [
        "org.mvel2"
      ],
      "wrapAsImports": true
    },
    {
      "category": "External Libraries",
      "name": "mybatis-spring",
      "languages": [
        "java"
      ],
      "extensions": [],
      "fingerprints": [
        "org.mybatis.spring"
      ],
      "wrapAsImports": true
    },
    {
      "category": "External Libraries",
      "name": "oapache-soap",
      "languages": [
        "java"
      ],
      "extensions": [],
      "fingerprints": [
        "org.apache.soap"
      ],
      "wrapAsImports": true
    },
    {
      "category": "External Libraries",
      "name": "objectlab-kit",
      "languages": [
        "java"
      ],
      "extensions": [],
      "fingerprints": [
        "net.objectlab.kit"
      ],
      "wrapAsImports": true
    },
    {
      "category": "External Libraries",
      "name": "jdbc",
      "languages": [
        "java"
      ],
      "extensions": [],
      "fingerprints": [
        "oracle.jdbc",
        "oracle.security.o3logon",
        "oracle.sql",
        "oracle.net",
        "oracle.jpub",
        "com.oracle.ojdbc",
        "com.oracle.ojdbc6",
        "com.oracle.ojdbc7"
      ],
      "wrapAsImports": true
    },
    {
      "category": "External Libraries",
      "name": "opencsv",
      "languages": [
        "java"
      ],
      "extensions": [],
      "fingerprints": [
        "net.sf.opencsv",
        "com.opencsv"
      ],
      "wrapAsImports": true
    },
    {
      "category": "External Libraries",
      "name": "ooxml-schemas",
      "languages": [
        "java"
      ],
      "extensions": [],
      "fingerprints": [
        "org.openxmlformats.schemas"
      ],
      "wrapAsImports": true
    },
    {
      "category": "External Libraries",
      "name": "owasp-csrfguard",
      "languages": [
        "java"
      ],
      "extensions": [],
      "fingerprints": [
        "org.owasp.csrfguard"
      ],
      "wrapAsImports": true
    },
    {
      "category": "External Libraries",
      "name": "owasp-esapi",
      "languages": [
        "java"
      ],
      "extensions": [],
      "fingerprints": [
        "org.owasp.esapi"
      ],
      "wrapAsImports": true
    },
    {
      "category": "External Libraries",
      "name": "apache-poi",
      "languages": [
        "java"
      ],
      "extensions": [],
      "fingerprints": [
        "org.apache.poi"
      ],
      "wrapAsImports": true
    },
    {
      "category": "External Libraries",
      "name": "powermock",
      "languages": [
        "java"
      ],
      "extensions": [],
      "fingerprints": [
        "org.powermock"
      ],
      "wrapAsImports": true
    },
    {
      "category": "External Libraries",
      "name": "quartz",
      "languages": [
        "java"
      ],
      "extensions": [],
      "fingerprints": [
        "org.quartz"
      ],
      "wrapAsImports": true
    },
    {
      "category": "External Libraries",
      "name": "saaj-api",
      "languages": [
        "java"
      ],
      "extensions": [],
      "fingerprints": [
        "javax.xml.soap"
      ],
      "wrapAsImports": true
    },
    {
      "category": "External Libraries",
      "name": "saxon",
      "languages": [
        "java"
      ],
      "extensions": [],
      "fingerprints": [
        "net.sf.saxon",
        "net.sourceforge.saxon"
      ],
      "wrapAsImports": true
    },
    {
      "category": "External Libraries",
      "name": "slf4j",
      "languages": [
        "java"
      ],
      "extensions": [],
      "fingerprints": [
        "org.slf4j"
      ],
      "wrapAsImports": true
    },
    {
      "category": "External Libraries",
      "name": "soap-api",
      "languages": [
        "java"
      ],
      "extensions": [],
      "fingerprints": [
        "org.apache.soap"
      ],
      "wrapAsImports": true
    },
    {
      "category": "External Libraries",
      "name": "spring",
      "languages": [
        "java"
      ],
      "extensions": [],
      "fingerprints": [
        "org.springframework"
      ],
      "wrapAsImports": true
    },
    {
      "category": "External Libraries",
      "name": "stax-ex",
      "languages": [
        "java"
      ],
      "extensions": [],
      "fingerprints": [
        "org.jvnet.staxex"
      ],
      "wrapAsImports": true
    },
    {
      "category": "External Libraries",
      "name": "stax2",
      "languages": [
        "java"
      ],
      "extensions": [],
      "fingerprints": [
        "org.codehaus.stax2"
      ],
      "wrapAsImports": true
    },
    {
      "category": "External Libraries",
      "name": "struts",
      "languages": [
        "java"
      ],
      "extensions": [],
      "fingerprints": [
        "org.apache.struts"
      ],
      "wrapAsImports": true
    },
    {
      "category": "External Libraries",
      "name": "surefire-junit4",
      "languages": [
        "java"
      ],
      "extensions": [],
      "fingerprints": [
        "org.apache.maven.surefire"
      ],
      "wrapAsImports": true
    },
    {
      "category": "External Libraries",
      "name": "tiles",
      "languages": [
        "java"
      ],
      "extensions": [],
      "fingerprints": [
        "org.apache.tiles"
      ],
      "wrapAsImports": true
    },
    {
      "category": "External Libraries",
      "name": "tridion",
      "languages": [
        "java"
      ],
      "extensions": [],
      "fingerprints": [
        "com.tridion"
      ],
      "wrapAsImports": true
    },
    {
      "category": "External Libraries",
      "name": "velocity",
      "languages": [
        "java"
      ],
      "extensions": [],
      "fingerprints": [
        "org.apache.velocity"
      ],
      "wrapAsImports": true
    },
    {
      "category": "External Libraries",
      "name": "woodstox-core-asl",
      "languages": [
        "java"
      ],
      "extensions": [],
      "fingerprints": [
        "com.ctc.wstx"
      ],
      "wrapAsImports": true
    },
    {
      "category": "External Libraries",
      "name": "axis-wsdl4j-1.2",
      "languages": [
        "java"
      ],
      "extensions": [],
      "fingerprints": [
        "com.ibm.wsdl",
        "javax.wsdl"
      ],
      "wrapAsImports": true
    },
    {
      "category": "External Libraries",
      "name": "jaxws-rs",
      "languages": [
        "java"
      ],
      "extensions": [],
      "fingerprints": [
        "javax.ws.rs"
      ],
      "wrapAsImports": true
    },
    {
      "category": "External Libraries",
      "name": "xalan",
      "languages": [
        "java"
      ],
      "extensions": [],
      "fingerprints": [
        "org.apache.xalan"
      ],
      "wrapAsImports": true
    },
    {
      "category": "External Libraries",
      "name": "xbean-spring",
      "languages": [
        "java"
      ],
      "extensions": [],
      "fingerprints": [
        "org.apache.xbean"
      ],
      "wrapAsImports": true
    },
    {
      "category": "External Libraries",
      "name": "getahead-dwr",
      "languages": [
        "java"
      ],
      "extensions": [],
      "fingerprints": [
        "uk.ltd.getahead.dwr"
      ],
      "wrapAsImports": true
    },
    {
      "category": "External Libraries",
      "name": "taglibs",
      "languages": [
        "java"
      ],
      "extensions": [],
      "fingerprints": [
        "org.apache.taglibs"
      ],
      "wrapAsImports": true
    },
    {
      "category": "External Libraries",
      "name": "xerces",
      "languages": [
        "java"
      ],
      "extensions": [],
      "fingerprints": [
        "com.xerces",
        "org.apache.xerces",
        "com.sun.org.apache.xerces"
      ],
      "wrapAsImports": true
    },
    {
      "category": "External Libraries",
      "name": "xml-apis",
      "languages": [
        "java"
      ],
      "extensions": [],
      "fingerprints": [
        "org.xml.sax",
        "org.w3c.dom"
      ],
      "wrapAsImports": true
    },
    {
      "category": "External Libraries",
      "name": "apache-ws",
      "languages": [
        "java"
      ],
      "extensions": [],
      "fingerprints": [
        "org.apache.ws"
      ],
      "wrapAsImports": true
    },
    {
      "category": "External Libraries",
      "name": "xom",
      "languages": [
        "java"
      ],
      "extensions": [],
      "fingerprints": [
        "nu.xom"
      ],
      "wrapAsImports": true
    },
    {
      "category": "External Libraries",
      "name": "xstream",
      "languages": [
        "java"
      ],
      "extensions": [],
      "fingerprints": [
        "com.thoughtworks.xstream"
      ],
      "wrapAsImports": true
    },
    {
      "category": "External Libraries",
      "name": "apache-activemq",
      "languages": [
        "java"
      ],
      "extensions": [],
      "fingerprints": [
        "org.apache.activemq"
      ],
      "wrapAsImports": true
    },
    {
      "category": "External Libraries",
      "name": "tomcat",
      "languages": [
        "java"
      ],
      "extensions": [],
      "fingerprints": [
        "org.apache.tomcat",
        "org.apache.catalina"
      ],
      "wrapAsImports": true
    },
    {
      "category": "External Libraries",
      "name": "xmlbeans",
      "languages": [
        "java"
      ],
      "extensions": [],
      "fingerprints": [
        "org.apache.xmlbeans"
      ],
      "wrapAsImports": true
    },
    {
      "category": "External Libraries",
      "name": "jxl",
      "languages": [
        "java"
      ],
      "extensions": [],
      "fingerprints": [
        "jxl"
      ],
      "wrapAsImports": true
    },
    {
      "category": "External Libraries",
      "name": "emma",
      "languages": [
        "java"
      ],
      "extensions": [],
      "fingerprints": [
        "com.vladium"
      ],
      "wrapAsImports": true
    },
    {
      "category": "External Libraries",
      "name": "dom4j",
      "languages": [
        "java"
      ],
      "extensions": [],
      "fingerprints": [
        "org.dom4j"
      ],
      "wrapAsImports": true
    },
    {
      "category": "External Libraries",
      "name": "displaytag",
      "languages": [
        "java"
      ],
      "extensions": [],
      "fingerprints": [
        "org.displaytag"
      ],
      "wrapAsImports": true
    },
    {
      "category": "External Libraries",
      "name": "eclipse-jdtcore",
      "languages": [
        "java"
      ],
      "extensions": [],
      "fingerprints": [
        "com.eclipse.jdtcore"
      ],
      "wrapAsImports": true
    },
    {
      "category": "External Libraries",
      "name": "eclipse-persistence",
      "languages": [
        "java"
      ],
      "extensions": [],
      "fingerprints": [
        "com.eclipse.persistence"
      ],
      "wrapAsImports": true
    },
    {
      "category": "External Libraries",
      "name": "eclipse-jetty",
      "languages": [
        "java"
      ],
      "extensions": [],
      "fingerprints": [
        "org.eclipse.jetty"
      ],
      "wrapAsImports": true
    },
    {
      "category": "External Libraries",
      "name": "jersey",
      "languages": [
        "java"
      ],
      "extensions": [],
      "fingerprints": [
        "org.glassfish.jersey",
        "com.sun.jersey"
      ],
      "wrapAsImports": true
    },
    {
      "category": "External Libraries",
      "name": "fasterxml",
      "languages": [
        "java"
      ],
      "extensions": [],
      "fingerprints": [
        "com.fasterxml"
      ],
      "wrapAsImports": true
    },
    {
      "category": "External Libraries",
      "name": "reflections",
      "languages": [
        "java"
      ],
      "extensions": [],
      "fingerprints": [
        "org.reflections"
      ],
      "wrapAsImports": true
    },
    {
      "category": "External Libraries",
      "name": "openjdk-jmh",
      "languages": [
        "java"
      ],
      "extensions": [],
      "fingerprints": [
        "org.openjdk.jmh"
      ],
      "wrapAsImports": true
    },
    {
      "category": "External Libraries",
      "name": "argparse4j",
      "languages": [
        "java"
      ],
      "extensions": [],
      "fingerprints": [
        "net.sourceforge.argparse4j"
      ],
      "wrapAsImports": true
    },
    {
      "category": "External Libraries",
      "name": "lz4",
      "languages": [
        "java"
      ],
      "extensions": [],
      "fingerprints": [
        "net.jpountz.lz4"
      ],
      "wrapAsImports": true
    },
    {
      "category": "External Libraries",
      "name": "rocksdb",
      "languages": [
        "java"
      ],
      "extensions": [],
      "fingerprints": [
        "org.rocksdb"
      ],
      "wrapAsImports": true
    },
    {
      "category": "External Libraries",
      "name": "zkclient",
      "languages": [
        "java"
      ],
      "extensions": [],
      "fingerprints": [
        "org.I0Itec.zkclient"
      ],
      "wrapAsImports": true
    },
    {
      "category": "External Libraries",
      "name": "selenium",
      "languages": [
        "java"
      ],
      "extensions": [],
      "fingerprints": [
        "org.openqa.selenium"
      ],
      "wrapAsImports": true
    },
    {
      "category": "External Libraries",
      "name": "lombok",
      "languages": [
        "java"
      ],
      "extensions": [],
      "fingerprints": [
        "lombok"
      ],
      "wrapAsImports": true
    },
    {
      "category": "External Libraries",
      "name": "dbunit",
      "languages": [
        "java"
      ],
      "extensions": [],
      "fingerprints": [
        "org.dbunit",
        "com.github.springtestdbunit"
      ],
      "wrapAsImports": true
    },
    {
      "category": "External Libraries",
      "name": "drools",
      "languages": [
        "java"
      ],
      "extensions": [],
      "fingerprints": [
        "org.drools"
      ],
      "wrapAsImports": true
    },
    {
      "category": "External Libraries",
      "name": "snmp4j",
      "languages": [
        "java"
      ],
      "extensions": [],
      "fingerprints": [
        "org.snmp4j"
      ],
      "wrapAsImports": true
    },
    {
      "category": "External Libraries",
      "name": "QOS Logback",
      "languages": [
        "java"
      ],
      "extensions": [],
      "fingerprints": [
        "ch.qos.logback"
      ],
      "wrapAsImports": true
    },
    {
      "category": "External Libraries",
      "name": "bytecode",
      "languages": [
        "java"
      ],
      "extensions": [],
      "fingerprints": [
        "au.com.bytecode"
      ],
      "wrapAsImports": true
    },
    {
      "category": "External Libraries",
      "name": "zaxxer-hikari",
      "languages": [
        "java"
      ],
      "extensions": [],
      "fingerprints": [
        "com.zaxxer.hikari"
      ],
      "wrapAsImports": true
    },
    {
      "category": "External Libraries",
      "name": "jira-api",
      "languages": [
        "java"
      ],
      "extensions": [],
      "fingerprints": [
        "com.atlassian.jira"
      ],
      "wrapAsImports": true
    },
    {
      "category": "External Libraries",
      "name": "atlassian",
      "languages": [
        "java"
      ],
      "extensions": [],
      "fingerprints": [
        "com.atlassian.util",
        "com.atlassian.oai"
      ],
      "wrapAsImports": true
    },
    {
      "category": "External Libraries",
      "name": "quickfix",
      "languages": [
        "java"
      ],
      "extensions": [],
      "fingerprints": [
        "quickfix",
        "org.quickfixj.jmx"
      ],
      "wrapAsImports": true
    },
    {
      "category": "External Libraries",
      "name": "mongodb",
      "languages": [
        "java"
      ],
      "extensions": [],
      "fingerprints": [
        "com.mongodb"
      ],
      "wrapAsImports": true
    },
    {
      "category": "External Libraries",
      "name": "unboundid-scim",
      "languages": [
        "java"
      ],
      "extensions": [],
      "fingerprints": [
        "com.unboundid.scim"
      ],
      "wrapAsImports": true
    },
    {
      "category": "External Libraries",
      "name": "vaadin-sass",
      "languages": [
        "java"
      ],
      "extensions": [],
      "fingerprints": [
        "com.vaadin.sass"
      ],
      "wrapAsImports": true
    },
    {
      "category": "External Libraries",
      "name": "mockserver",
      "languages": [
        "java"
      ],
      "extensions": [],
      "fingerprints": [
        "org.mockserver"
      ],
      "wrapAsImports": true
    },
    {
      "category": "External Libraries",
      "name": "GWT",
      "languages": [
        "java"
      ],
      "extensions": [],
      "fingerprints": [
        "com.google.gwt"
      ],
      "wrapAsImports": true
    },
    {
      "category": "External Libraries",
      "name": "kafka",
      "languages": [
        "java"
      ],
      "extensions": [],
      "fingerprints": [
        "org.apache.kafka",
        "kafka"
      ],
      "wrapAsImports": true
    },
    {
      "category": "External Libraries",
      "name": "jena",
      "languages": [
        "java"
      ],
      "extensions": [],
      "fingerprints": [
        "com.hp.hpl.jena"
      ],
      "wrapAsImports": true
    },
    {
      "category": "External Libraries",
      "name": "apache-http",
      "languages": [
        "java"
      ],
      "extensions": [],
      "fingerprints": [
        "org.apache.http"
      ],
      "wrapAsImports": true
    },
    {
      "category": "External Libraries",
      "name": "apache-directory",
      "languages": [
        "java"
      ],
      "extensions": [],
      "fingerprints": [
        "org.apache.directory"
      ],
      "wrapAsImports": true
    },
    {
      "category": "External Libraries",
      "name": "apache-jxpath",
      "languages": [
        "java"
      ],
      "extensions": [],
      "fingerprints": [
        "org.apache.commons.jxpath"
      ],
      "wrapAsImports": true
    },
    {
      "category": "External Libraries",
      "name": "apache-lucene",
      "languages": [
        "java"
      ],
      "extensions": [],
      "fingerprints": [
        "org.apache.lucene"
      ],
      "wrapAsImports": true
    },
    {
      "category": "External Libraries",
      "name": "elasticsearch",
      "languages": [
        "java"
      ],
      "extensions": [],
      "fingerprints": [
        "org.elasticsearch"
      ],
      "wrapAsImports": true
    },
    {
      "category": "External Libraries",
      "name": "isdc-wro",
      "languages": [
        "java"
      ],
      "extensions": [],
      "fingerprints": [
        "ro.isdc.wro"
      ],
      "wrapAsImports": true
    },
    {
      "category": "External Libraries",
      "name": "groovy",
      "languages": [
        "java"
      ],
      "extensions": [],
      "fingerprints": [
        "org.codehaus.groovy",
        "groovy"
      ],
      "wrapAsImports": true
    },
    {
      "category": "External Libraries",
      "name": "apache-pdfbox",
      "languages": [
        "java"
      ],
      "extensions": [],
      "fingerprints": [
        "org.apache.pdfbox"
      ],
      "wrapAsImports": true
    },
    {
      "category": "External Libraries",
      "name": "google-api",
      "languages": [
        "java"
      ],
      "extensions": [],
      "fingerprints": [
        "google.api"
      ],
      "wrapAsImports": true
    },
    {
      "category": "External Libraries",
      "name": "bson",
      "languages": [
        "java"
      ],
      "extensions": [],
      "fingerprints": [
        "org.bson"
      ],
      "wrapAsImports": true
    },
    {
      "category": "External Libraries",
      "name": "codahale-metrics",
      "languages": [
        "java"
      ],
      "extensions": [],
      "fingerprints": [
        "com.codahale.metrics"
      ],
      "wrapAsImports": true
    },
    {
      "category": "External Libraries",
      "name": "opensaml",
      "languages": [
        "java"
      ],
      "extensions": [],
      "fingerprints": [
        "org.opensaml"
      ],
      "wrapAsImports": true
    },
    {
      "category": "External Libraries",
      "name": "OSGI",
      "languages": [
        "java"
      ],
      "extensions": [],
      "fingerprints": [
        "org.osgi.framework"
      ],
      "wrapAsImports": true
    },
    {
      "category": "External Libraries",
      "name": "google-inject",
      "languages": [
        "java"
      ],
      "extensions": [],
      "fingerprints": [
        "com.google.inject"
      ],
      "wrapAsImports": true
    },
    {
      "category": "External Libraries",
      "name": "keycloak",
      "languages": [
        "java"
      ],
      "extensions": [],
      "fingerprints": [
        "org.keycloak"
      ],
      "wrapAsImports": true
    },
    {
      "category": "External Libraries",
      "name": "ops4j",
      "languages": [
        "java"
      ],
      "extensions": [],
      "fingerprints": [
        "org.ops4j.pax"
      ],
      "wrapAsImports": true
    },
    {
      "category": "External Libraries",
      "name": "jgrapht",
      "languages": [
        "java"
      ],
      "extensions": [],
      "fingerprints": [
        "org.jgrapht"
      ],
      "wrapAsImports": true
    },
    {
      "category": "External Libraries",
      "name": "oauth",
      "languages": [
        "java"
      ],
      "extensions": [],
      "fingerprints": [
        "net.oauth"
      ],
      "wrapAsImports": true
    },
    {
      "category": "External Libraries",
      "name": "restlet",
      "languages": [
        "java"
      ],
      "extensions": [],
      "fingerprints": [
        "org.restlet"
      ],
      "wrapAsImports": true
    },
    {
      "category": "External Libraries",
      "name": "snakeyaml",
      "languages": [
        "java"
      ],
      "extensions": [],
      "fingerprints": [
        "org.yaml.snakeyaml"
      ],
      "wrapAsImports": true
    },
    {
      "category": "External Libraries",
      "name": "richfaces",
      "languages": [
        "java"
      ],
      "extensions": [],
      "fingerprints": [
        "org.richfaces"
      ],
      "wrapAsImports": true
    },
    {
      "category": "External Libraries",
      "name": "apache-wink",
      "languages": [
        "java"
      ],
      "extensions": [],
      "fingerprints": [
        "org.apache.wink"
      ],
      "wrapAsImports": true
    },
    {
      "category": "External Libraries",
      "name": "redis-clients",
      "languages": [
        "java"
      ],
      "extensions": [],
      "fingerprints": [
        "redis.clients"
      ],
      "wrapAsImports": true
    },
    {
      "category": "External Libraries",
      "name": "javasimon",
      "languages": [
        "java"
      ],
      "extensions": [],
      "fingerprints": [
        "org.javasimon"
      ],
      "wrapAsImports": true
    },
    {
      "category": "External Libraries",
      "name": "htmlunit",
      "languages": [
        "java"
      ],
      "extensions": [],
      "fingerprints": [
        "com.gargoylesoftware.htmlunit"
      ],
      "wrapAsImports": true
    },
    {
      "category": "External Libraries",
      "name": "wikimodel-wem",
      "languages": [
        "java"
      ],
      "extensions": [],
      "fingerprints": [
        "org.wikimodel.wem"
      ],
      "wrapAsImports": true
    },
    {
      "category": "External Libraries",
      "name": "openhft-chronicle",
      "languages": [
        "java"
      ],
      "extensions": [],
      "fingerprints": [
        "net.openhft.chronicle.queue"
      ],
      "wrapAsImports": true
    }
  ]
}